\relax 
\citation{Yeom_Seegerer_Lapuschkin_Binder_Wiedemann_Muller_Samek_2021}
\citation{Weber_Merkle_Schottle_Schlogl_2023}
\@writefile{toc}{\contentsline {section}{\numberline {1}Introduction}{1}{}\protected@file@percent }
\newlabel{sec:Introduction}{{1}{1}}
\citation{Ghosh_Batmanghelich_2023}
\citation{Yeom_Seegerer_Lapuschkin_Binder_Wiedemann_Muller_Samek_2021}
\citation{Yang_Chen_Sze_2017}
\citation{Ghosh_Batmanghelich_2023}
\@writefile{toc}{\contentsline {section}{\numberline {2}Related Work}{2}{}\protected@file@percent }
\newlabel{sec:RelatedWork}{{2}{2}}
\@writefile{toc}{\contentsline {section}{\numberline {3}Implementation}{3}{}\protected@file@percent }
\newlabel{sec:Implementation}{{3}{3}}
\@writefile{loa}{\contentsline {algorithm}{\numberline {1}{\ignorespaces Implementation for paper\relax }}{3}{}\protected@file@percent }
\providecommand*\caption@xref[2]{\@setref\relax\@undefined{#1}}
\newlabel{alg:iterative_magnitude_pruning}{{1}{3}}
\@writefile{toc}{\contentsline {section}{\numberline {4}Evaluation: To talk about}{4}{}\protected@file@percent }
\newlabel{sec:Evaluation}{{4}{4}}
\@writefile{loa}{\contentsline {algorithm}{\numberline {2}{\ignorespaces Evaluation of Pruned Models\relax }}{4}{}\protected@file@percent }
\newlabel{alg:evaluation_of_pruned_models}{{2}{4}}
\bibstyle{plain}
\bibdata{references}
\bibcite{Ghosh_Batmanghelich_2023}{1}
\@writefile{toc}{\contentsline {section}{\numberline {5}Conclusions and Future Work}{5}{}\protected@file@percent }
\newlabel{sec:Conclusion}{{5}{5}}
\@writefile{toc}{\contentsline {section}{\numberline {6}Definitions}{5}{}\protected@file@percent }
\bibcite{Weber_Merkle_Schottle_Schlogl_2023}{2}
\bibcite{Yang_Chen_Sze_2017}{3}
\bibcite{Yeom_Seegerer_Lapuschkin_Binder_Wiedemann_Muller_Samek_2021}{4}
\gdef \@abspage@last{6}
