\relax 
\citation{lipton2018mythos}
\citation{miller2019explanation}
\@writefile{toc}{\contentsline {section}{\numberline {I}Introduction}{1}{}\protected@file@percent }
\newlabel{sec:introduction}{{I}{1}{}{}{}}
\@writefile{toc}{\contentsline {section}{\numberline {II}Background}{1}{}\protected@file@percent }
\newlabel{sec:background}{{II}{1}{}{}{}}
\citation{roscher2020explainable}
\citation{lipton2018mythos}
\citation{montavon2018methods}
\bibstyle{IEEEtran}
\bibdata{cite}
\bibcite{lipton2018mythos}{1}
\bibcite{miller2019explanation}{2}
\bibcite{roscher2020explainable}{3}
\@writefile{toc}{\contentsline {section}{\numberline {III}Definition}{2}{}\protected@file@percent }
\newlabel{sec:definition}{{III}{2}{}{}{}}
\@writefile{toc}{\contentsline {subsection}{\numberline {\mbox  {III-A}}Definition of the Problem}{2}{}\protected@file@percent }
\newlabel{subsec:definition_of_the_problem}{{\mbox  {III-A}}{2}{}{}{}}
\@writefile{toc}{\contentsline {section}{\numberline {IV}Evaluation}{2}{}\protected@file@percent }
\newlabel{sec:evaluation}{{IV}{2}{}{}{}}
\@writefile{toc}{\contentsline {section}{References}{2}{}\protected@file@percent }
\bibcite{montavon2018methods}{4}
\gdef \@abspage@last{3}
